Most Sold Updated [1934] #13: rough flowers: 69, C.3395.81 H.4123.82 TS.69 TSL.54 -> Look back 300 minutes and check for a 3 % drop before exit
Most Sold Updated [1714] #12: rough elephant: 66, C.3488.07 H.4082.09 TS.66 TSL.67 -> Look back 270 minutes and check for a 3 % drop before exit
Most Sold Updated [1507] #11: rough cow: 64, C.3475.87 H.4038.47 TS.64 TSL.70 -> Look back 240 minutes and check for a 3 % drop before exit
Most Sold Updated [1313] #10: rough cavity: 61, C.3445.67 H.4007.85 TS.61 TSL.78 -> Look back 210 minutes and check for a 3 % drop before exit
Best PortVal Updated [1133] #9: rough case: 3594.03, C.3594.03 H.4016.24 TS.53 TSL.91 -> Look back 180 minutes and check for a 3 % drop before exit
Best PortVal Updated [0338] #0: rough bambi: 3583.62, C.3583.62 H.3763.08 TS.16 TSL.173 -> Look back 10 minutes and check for a 3 % drop before exit



Best PortVal Updated [2212] #296: cute hyena: 3777.69, C.3777.69 H.3954.72 TS.54 TSL.41 -> Check last 20 minutes for a prospect. Buy if prices has moved at least 1.25 %

Best Sold/Loss Ratio Updated [3439] #276: curios moon: 1.281, C.3218.11 H.4294.32 TS.73 TSL.57 -> Check last 25 minutes for a prospect. Buy if prices has moved at least 0.25 %
Most Sold Updated [2342] #272: curios journey: 82, C.3433.73 H.4490.08 TS.82 TSL.73 -> Check last 5 minutes for a prospect. Buy if prices has moved at least 0.25 %
Most Sold Updated [2101] #271: curios heartache: 73, C.3204.6 H.4332.46 TS.73 TSL.62 -> Check last 3 minutes for a prospect. Buy if prices has moved at least 0.25 %

///Check last 3,5,20,25
///look back 300,270,240,210,180,10, 5
///Percent Increase 0.25, 1.25
///Percent Drop 3